Assignment 1/Basic gates/NOT1/simulation/qsim/NOT1.msim.vcd
$comment
	File created using the following command:
		vcd file NOT1.msim.vcd -direction
$end
$date
	Mon Apr 04 18:33:20 2022
$end
$version
	ModelSim Version 10.1d
$end
$timescale
	1ps
$end
$scope module NOT1_vlg_vec_tst $end
$var reg 1 ! A $end
$var wire 1 " Q $end
$var wire 1 # sampler $end
$scope module i1 $end
$var wire 1 $ gnd $end
$var wire 1 % vcc $end
$var wire 1 & unknown $end
$var tri1 1 ' devclrn $end
$var tri1 1 ( devpor $end
$var tri1 1 ) devoe $end
$var wire 1 * A~combout $end
$upscope $end
$upscope $end
$enddefinitions $end
#0
$dumpvars
0!
x"
x#
0$
1%
x&
1'
1(
1)
0*
$end
#3823
1"
#20000
1!
0#
#20979
1*
#24802
0"
#30000
0!
1#
#30979
0*
#34802
1"
#40000
1!
0#
#40979
1*
#44802
0"
#60000
0!
1#
#60979
0*
#64802
1"
#70000
1!
0#
#70979
1*
#74802
0"
#100000
0!
1#
#100979
0*
#104802
1"
#110000
1!
0#
#110979
1*
#114802
0"
#120000
0!
1#
#120979
0*
#124802
1"
#130000
1!
0#
#130979
1*
#134802
0"
#140000
0!
1#
#140979
0*
#144802
1"
#150000
1!
0#
#150979
1*
#154802
0"
#170000
0!
1#
#170979
0*
#174802
1"
#190000
1!
0#
#190979
1*
#194802
0"
#200000
0!
1#
#200979
0*
#204802
1"
#220000
1!
0#
#220979
1*
#224802
0"
#240000
0!
1#
#240979
0*
#244802
1"
#250000
1!
0#
#250979
1*
#254802
0"
#260000
0!
1#
#260979
0*
#264802
1"
#270000
1!
0#
#270979
1*
#274802
0"
#280000
0!
1#
#280979
0*
#284802
1"
#300000
1!
0#
#300979
1*
#304802
0"
#310000
0!
1#
#310979
0*
#314802
1"
#330000
1!
0#
#330979
1*
#334802
0"
#350000
0!
1#
#350979
0*
#354802
1"
#360000
1!
0#
#360979
1*
#364802
0"
#370000
0!
1#
#370979
0*
#374802
1"
#420000
1!
0#
#420979
1*
#424802
0"
#440000
0!
1#
#440979
0*
#444802
1"
#450000
1!
0#
#450979
1*
#454802
0"
#470000
0!
1#
#470979
0*
#474802
1"
#480000
1!
0#
#480979
1*
#484802
0"
#500000
0!
1#
#500979
0*
#504802
1"
#510000
1!
0#
#510979
1*
#514802
0"
#520000
0!
1#
#520979
0*
#524802
1"
#540000
1!
0#
#540979
1*
#544802
0"
#550000
0!
1#
#550979
0*
#554802
1"
#560000
1!
0#
#560979
1*
#564802
0"
#590000
0!
1#
#590979
0*
#594802
1"
#600000
1!
0#
#600979
1*
#604802
0"
#620000
0!
1#
#620979
0*
#624802
1"
#630000
1!
0#
#630979
1*
#634802
0"
#640000
0!
1#
#640979
0*
#644802
1"
#660000
1!
0#
#660979
1*
#664802
0"
#680000
0!
1#
#680979
0*
#684802
1"
#700000
1!
0#
#700979
1*
#704802
0"
#750000
0!
1#
#750979
0*
#754802
1"
#760000
1!
0#
#760979
1*
#764802
0"
#770000
0!
1#
#770979
0*
#774802
1"
#780000
1!
0#
#780979
1*
#784802
0"
#820000
0!
1#
#820979
0*
#824802
1"
#840000
1!
0#
#840979
1*
#844802
0"
#870000
0!
1#
#870979
0*
#874802
1"
#880000
1!
0#
#880979
1*
#884802
0"
#910000
0!
1#
#910979
0*
#914802
1"
#920000
1!
0#
#920979
1*
#924802
0"
#930000
0!
1#
#930979
0*
#934802
1"
#940000
1!
0#
#940979
1*
#944802
0"
