Assignment 1/Basic gates/XOR2/simulation/qsim/XOR_2.msim.vcd
$comment
	File created using the following command:
		vcd file XOR_2.msim.vcd -direction
$end
$date
	Mon Apr 04 18:46:27 2022
$end
$version
	ModelSim Version 10.1d
$end
$timescale
	1ps
$end
$scope module XOR_2_vlg_vec_tst $end
$var reg 1 ! A $end
$var reg 1 " B $end
$var wire 1 # Z $end
$var wire 1 $ sampler $end
$scope module i1 $end
$var wire 1 % gnd $end
$var wire 1 & vcc $end
$var wire 1 ' unknown $end
$var tri1 1 ( devclrn $end
$var tri1 1 ) devpor $end
$var tri1 1 * devoe $end
$var wire 1 + A~combout $end
$var wire 1 , B~combout $end
$var wire 1 - V4|OUT1~0_combout $end
$upscope $end
$upscope $end
$enddefinitions $end
#0
$dumpvars
0!
0"
x#
x$
0%
1&
x'
1(
1)
1*
0+
0,
x-
$end
#1061
0-
#4428
0#
#10000
1"
0$
#10979
1,
#11766
1-
#15133
1#
#20000
1!
0"
1$
#20979
0,
1+
#30000
0!
0$
#30979
0+
#32040
0-
#35407
0#
#50000
1"
1$
#50979
1,
#51766
1-
#55133
1#
#60000
0"
0$
#60979
0,
#61766
0-
#65133
0#
#70000
1!
1$
#70979
1+
#72040
1-
#75407
1#
#80000
1"
0!
0$
#80979
0+
1,
#90000
0"
1$
#90979
0,
#91766
0-
#95133
0#
#100000
1!
0$
#100979
1+
#102040
1-
#105407
1#
#110000
1"
0!
1$
#110979
0+
1,
#120000
0"
0$
#120979
0,
#121766
0-
#125133
0#
#130000
1!
1"
1$
#130979
1,
1+
#150000
0!
0"
0$
#150979
0,
0+
#160000
1!
1"
1$
#160979
1,
1+
#170000
0!
0"
0$
#170979
0,
0+
#180000
1!
1"
1$
#180979
1,
1+
#200000
0"
0$
#200979
0,
#201766
1-
#205133
1#
#210000
1"
1$
#210979
1,
#211766
0-
#215133
0#
#220000
0!
0"
0$
#220979
0,
0+
#230000
1!
1$
#230979
1+
#232040
1-
#235407
1#
#250000
1"
0!
0$
#250979
0+
1,
#260000
1!
1$
#260979
1+
#262040
0-
#265407
0#
#270000
0"
0$
#270979
0,
#271766
1-
#275133
1#
#280000
0!
1$
#280979
0+
#282040
0-
#285407
0#
#290000
1!
0$
#290979
1+
#292040
1-
#295407
1#
#310000
1"
1$
#310979
1,
#311766
0-
#315133
0#
#330000
0!
0"
0$
#330979
0,
0+
#340000
1"
1$
#340979
1,
#341766
1-
#345133
1#
#350000
0"
0$
#350979
0,
#351766
0-
#355133
0#
#370000
1"
1$
#370979
1,
#371766
1-
#375133
1#
#390000
1!
0$
#390979
1+
#392040
0-
#395407
0#
#410000
0"
1$
#410979
0,
#411766
1-
#415133
1#
#420000
0!
0$
#420979
0+
#422040
0-
#425407
0#
#430000
1"
1$
#430979
1,
#431766
1-
#435133
1#
#440000
1!
0"
0$
#440979
0,
1+
#450000
0!
1$
#450979
0+
#452040
0-
#455407
0#
#460000
1"
1!
0$
#460979
1+
1,
#470000
0"
1$
#470979
0,
#471766
1-
#475133
1#
#480000
1"
0$
#480979
1,
#481766
0-
#485133
0#
#490000
0"
1$
#490979
0,
#491766
1-
#495133
1#
#500000
0!
0$
#500979
0+
#502040
0-
#505407
0#
#520000
1"
1$
#520979
1,
#521766
1-
#525133
1#
#530000
0"
0$
#530979
0,
#531766
0-
#535133
0#
#540000
1!
1$
#540979
1+
#542040
1-
#545407
1#
#550000
1"
0$
#550979
1,
#551766
0-
#555133
0#
#560000
0!
0"
1$
#560979
0,
0+
#570000
1"
0$
#570979
1,
#571766
1-
#575133
1#
#580000
1!
1$
#580979
1+
#582040
0-
#585407
0#
#600000
0!
0$
#600979
0+
#602040
1-
#605407
1#
#610000
0"
1!
1$
#610979
1+
0,
#630000
0!
0$
#630979
0+
#632040
0-
#635407
0#
#640000
1"
1$
#640979
1,
#641766
1-
#645133
1#
#660000
0"
0$
#660979
0,
#661766
0-
#665133
0#
#670000
1"
1$
#670979
1,
#671766
1-
#675133
1#
#690000
0"
0$
#690979
0,
#691766
0-
#695133
0#
#700000
1"
1$
#700979
1,
#701766
1-
#705133
1#
#710000
0"
0$
#710979
0,
#711766
0-
#715133
0#
#730000
1!
1"
1$
#730979
1,
1+
#740000
0"
0$
#740979
0,
#741766
1-
#745133
1#
#750000
0!
1"
1$
#750979
1,
0+
#760000
0"
0$
#760979
0,
#761766
0-
#765133
0#
#770000
1"
1$
#770979
1,
#771766
1-
#775133
1#
#780000
1!
0$
#780979
1+
#782040
0-
#785407
0#
#790000
0"
1$
#790979
0,
#791766
1-
#795133
1#
#800000
1"
0$
#800979
1,
#801766
0-
#805133
0#
#810000
0"
1$
#810979
0,
#811766
1-
#815133
1#
#820000
0!
0$
#820979
0+
#822040
0-
#825407
0#
#840000
1"
1$
#840979
1,
#841766
1-
#845133
1#
#850000
0"
0$
#850979
0,
#851766
0-
#855133
0#
#860000
1!
1"
1$
#860979
1,
1+
#870000
0!
0"
0$
#870979
0,
0+
#880000
1!
1$
#880979
1+
#882040
1-
#885407
1#
#890000
1"
0!
0$
#890979
0+
1,
#900000
0"
1$
#900979
0,
#901766
0-
#905133
0#
#920000
1"
0$
#920979
1,
#921766
1-
#925133
1#
#930000
0"
1$
#930979
0,
#931766
0-
#935133
0#
#970000
1!
1"
0$
#970979
1,
1+
#990000
0"
1$
#990979
0,
#991766
1-
#995133
1#
