Assignment 1/fulladder/simulation/qsim/fulladder.msim.vcd
$comment
	File created using the following command:
		vcd file fulladder.msim.vcd -direction
$end
$date
	Mon Apr 04 19:25:59 2022
$end
$version
	ModelSim Version 10.1d
$end
$timescale
	1ps
$end
$scope module FULLADDER_1_vlg_vec_tst $end
$var reg 1 ! cin $end
$var reg 1 " in1 $end
$var reg 1 # in2 $end
$var wire 1 $ cout $end
$var wire 1 % sum $end
$var wire 1 & sampler $end
$scope module i1 $end
$var wire 1 ' gnd $end
$var wire 1 ( vcc $end
$var wire 1 ) unknown $end
$var tri1 1 * devclrn $end
$var tri1 1 + devpor $end
$var tri1 1 , devoe $end
$var wire 1 - in1~combout $end
$var wire 1 . cin~combout $end
$var wire 1 / in2~combout $end
$var wire 1 0 V0|V1|V4|OUT1~0_combout $end
$var wire 1 1 V4|V1|OUT1~0_combout $end
$upscope $end
$upscope $end
$enddefinitions $end
#0
$dumpvars
1!
0"
1#
x$
x%
x&
0'
1(
x)
1*
1+
1,
0-
1.
1/
x0
x1
$end
#5076
11
#5081
00
#8436
0%
#8442
1$
#10000
0!
0#
0&
#10840
0.
#10979
0/
#11992
01
10
#15347
1%
#15358
0$
#15921
00
#19276
0%
#20000
1"
1#
1&
#20979
1/
1-
#22301
11
#25667
1$
#30000
0"
0#
0&
#30979
0/
0-
#31992
01
#35358
0$
#40000
1!
1"
1&
#40840
1.
#40979
1-
#42300
10
#45655
1%
#45916
11
#45921
00
#49276
0%
#49282
1$
#50000
0!
0&
#50840
0.
#55916
01
#55921
10
#59276
1%
#59282
0$
#60000
1!
1&
#60840
1.
#65916
11
#65921
00
#69276
0%
#69282
1$
#70000
1#
0!
0&
#70840
0.
#70979
1/
#71992
10
#75347
1%
#75921
00
#79276
0%
#80000
0"
1!
1&
#80840
1.
#80979
0-
#82300
10
#82301
01
#85655
1%
#85667
0$
#85916
11
#85921
00
#89276
0%
#89282
1$
#100000
0#
0!
0&
#100840
0.
#100979
0/
#101992
01
10
#105347
1%
#105358
0$
#105921
00
#109276
0%
#110000
1!
1&
#110840
1.
#115921
10
#119276
1%
#120000
1"
1#
0!
0&
#120840
0.
#120979
1/
1-
#121992
11
#125358
1$
#125921
00
#129276
0%
#130000
1!
1&
#130840
1.
#135921
10
#139276
1%
#140000
0"
0&
#140979
0-
#142300
00
#145655
0%
#150000
0#
0!
1&
#150840
0.
#150979
0/
#151992
01
10
#155347
1%
#155358
0$
#155921
00
#159276
0%
#170000
1#
1!
0&
#170840
1.
#170979
1/
#171992
10
#175347
1%
#175916
11
#175921
00
#179276
0%
#179282
1$
#180000
1"
1&
#180979
1-
#182300
10
#185655
1%
#200000
0!
0&
#200840
0.
#205921
00
#209276
0%
#210000
1!
1&
#210840
1.
#215921
10
#219276
1%
#220000
0"
0!
0&
#220840
0.
#220979
0-
#222300
00
#225655
0%
#225916
01
#225921
10
#229276
1%
#229282
0$
#230000
1"
1&
#230979
1-
#232300
00
#232301
11
#235655
0%
#235667
1$
#250000
0#
1!
0&
#250840
1.
#250979
0/
#251992
01
10
#255347
1%
#255358
0$
#255916
11
#255921
00
#259276
0%
#259282
1$
#260000
1#
0!
1&
#260840
0.
#260979
1/
#261992
10
#265347
1%
#265921
00
#269276
0%
#270000
0#
0&
#270979
0/
#271992
01
10
#275347
1%
#275358
0$
#280000
1!
1&
#280840
1.
#285916
11
#285921
00
#289276
0%
#289282
1$
#290000
1#
0&
#290979
1/
#291992
10
#295347
1%
#300000
0!
0#
1&
#300840
0.
#300979
0/
#301992
00
#305347
0%
#305916
01
#305921
10
#309276
1%
#309282
0$
#310000
0"
1!
1#
0&
#310840
1.
#310979
1/
0-
#315916
11
#315921
00
#319276
0%
#319282
1$
#320000
0!
1&
#320840
0.
#325916
01
#325921
10
#329276
1%
#329282
0$
#330000
0#
0&
#330979
0/
#331992
00
#335347
0%
#340000
1"
1#
1&
#340979
1/
1-
#342301
11
#345667
1$
#350000
1!
0"
0&
#350840
1.
#350979
0-
#352300
10
#352301
01
#355655
1%
#355667
0$
#355916
11
#355921
00
#359276
0%
#359282
1$
#360000
0#
0!
1&
#360840
0.
#360979
0/
#361992
01
10
#365347
1%
#365358
0$
#365921
00
#369276
0%
#370000
1#
0&
#370979
1/
#371992
10
#375347
1%
#380000
1!
0#
1&
#380840
1.
#380979
0/
#381992
00
#385347
0%
#385921
10
#389276
1%
#390000
1"
0!
0&
#390840
0.
#390979
1-
#392300
00
#392301
11
#395655
0%
#395667
1$
#395916
01
#395921
10
#399276
1%
#399282
0$
#410000
1#
0"
1!
1&
#410840
1.
#410979
0-
1/
#415916
11
#415921
00
#419276
0%
#419282
1$
#430000
0#
0!
0&
#430840
0.
#430979
0/
#431992
01
10
#435347
1%
#435358
0$
#435921
00
#439276
0%
#440000
1"
1!
1&
#440840
1.
#440979
1-
#442300
10
#445655
1%
#445916
11
#445921
00
#449276
0%
#449282
1$
#450000
0"
0!
0&
#450840
0.
#450979
0-
#452300
10
#452301
01
#455655
1%
#455667
0$
#455921
00
#459276
0%
#460000
1!
1&
#460840
1.
#465921
10
#469276
1%
#470000
1#
0!
0&
#470840
0.
#470979
1/
#471992
11
00
#475347
0%
#475358
1$
#475916
01
#475921
10
#479276
1%
#479282
0$
#480000
1"
1&
#480979
1-
#482300
00
#482301
11
#485655
0%
#485667
1$
#490000
1!
0&
#490840
1.
#495921
10
#499276
1%
#500000
0#
0"
0!
1&
#500840
0.
#500979
0-
0/
#502301
01
#505667
0$
#505921
00
#509276
0%
#510000
1"
1!
0&
#510840
1.
#510979
1-
#512300
10
#515655
1%
#515916
11
#515921
00
#519276
0%
#519282
1$
#520000
0"
1&
#520979
0-
#522300
10
#522301
01
#525655
1%
#525667
0$
#530000
0!
0&
#530840
0.
#535921
00
#539276
0%
#540000
1#
1"
1!
1&
#540840
1.
#540979
1-
1/
#542301
11
#545667
1$
#545921
10
#549276
1%
#550000
0"
0!
0&
#550840
0.
#550979
0-
#552300
00
#555655
0%
#555916
01
#555921
10
#559276
1%
#559282
0$
#560000
1"
1&
#560979
1-
#562300
00
#562301
11
#565655
0%
#565667
1$
#570000
0#
0"
0&
#570979
0-
0/
#571992
01
#575358
0$
#580000
1!
1#
1&
#580840
1.
#580979
1/
#581992
10
#585347
1%
#585916
11
#585921
00
#589276
0%
#589282
1$
#590000
0#
0&
#590979
0/
#591992
01
10
#595347
1%
#595358
0$
#600000
0!
1&
#600840
0.
#605921
00
#609276
0%
#610000
1"
1#
1!
0&
#610840
1.
#610979
1/
1-
#612301
11
#615667
1$
#615921
10
#619276
1%
#620000
0"
0#
0!
1&
#620840
0.
#620979
0/
0-
#622301
01
#625667
0$
#625921
00
#629276
0%
#630000
1#
0&
#630979
1/
#631992
10
#635347
1%
#640000
1"
1&
#640979
1-
#642300
00
#642301
11
#645655
0%
#645667
1$
#660000
0#
0&
#660979
0/
#661992
01
10
#665347
1%
#665358
0$
#670000
1#
1&
#670979
1/
#671992
11
00
#675347
0%
#675358
1$
#680000
1!
0&
#680840
1.
#685921
10
#689276
1%
#690000
0"
0!
1&
#690840
0.
#690979
0-
#692300
00
#695655
0%
#695916
01
#695921
10
#699276
1%
#699282
0$
#700000
0#
1"
1!
0&
#700840
1.
#700979
1-
0/
#705916
11
#705921
00
#709276
0%
#709282
1$
#710000
1#
0!
1&
#710840
0.
#710979
1/
#711992
10
#715347
1%
#715921
00
#719276
0%
#720000
0#
1!
0&
#720840
1.
#720979
0/
#721992
01
10
#725347
1%
#725358
0$
#725916
11
#725921
00
#729276
0%
#729282
1$
#730000
1#
0!
1&
#730840
0.
#730979
1/
#731992
10
#735347
1%
#735921
00
#739276
0%
#740000
0"
0&
#740979
0-
#742300
10
#742301
01
#745655
1%
#745667
0$
#760000
1"
1&
#760979
1-
#762300
00
#762301
11
#765655
0%
#765667
1$
#780000
1!
0&
#780840
1.
#785921
10
#789276
1%
#790000
0"
1&
#790979
0-
#792300
00
#795655
0%
#800000
0!
1"
0&
#800840
0.
#800979
1-
#802300
10
#805655
1%
#805921
00
#809276
0%
#810000
0#
1&
#810979
0/
#811992
01
10
#815347
1%
#815358
0$
#820000
1!
0"
1#
0&
#820840
1.
#820979
1/
0-
#825916
11
#825921
00
#829276
0%
#829282
1$
#840000
0#
1&
#840979
0/
#841992
01
10
#845347
1%
#845358
0$
#850000
0!
1"
1#
0&
#850840
0.
#850979
1/
1-
#851992
11
#855358
1$
#855921
00
#859276
0%
#860000
0"
0#
1&
#860979
0/
0-
#861992
01
#865358
0$
#870000
1!
1"
0&
#870840
1.
#870979
1-
#872300
10
#875655
1%
#875916
11
#875921
00
#879276
0%
#879282
1$
#880000
1#
0"
1&
#880979
0-
1/
#890000
0!
0&
#890840
0.
#895916
01
#895921
10
#899276
1%
#899282
0$
#900000
0#
1"
1&
#900979
1-
0/
#910000
1!
1#
0&
#910840
1.
#910979
1/
#911992
11
00
#915347
0%
#915358
1$
#915921
10
#919276
1%
#920000
0"
0#
1&
#920979
0/
0-
#922301
01
#925667
0$
#930000
0!
1"
1#
0&
#930840
0.
#930979
1/
1-
#931992
11
#935358
1$
#935921
00
#939276
0%
#940000
1!
0#
1&
#940840
1.
#940979
0/
#941992
01
10
#945347
1%
#945358
0$
#945916
11
#945921
00
#949276
0%
#949282
1$
#950000
0"
0&
#950979
0-
#952300
10
#952301
01
#955655
1%
#955667
0$
#960000
0!
1#
1&
#960840
0.
#960979
1/
#961992
11
00
#965347
0%
#965358
1$
#965916
01
#965921
10
#969276
1%
#969282
0$
#970000
1"
0&
#970979
1-
#972300
00
#972301
11
#975655
0%
#975667
1$
#980000
0#
1&
#980979
0/
#981992
01
10
#985347
1%
#985358
0$
#990000
0"
0&
#990979
0-
#992300
00
#995655
0%
