Assignment 1/Basic gates/OR3/simulation/qsim/OR_3.msim.vcd
$comment
	File created using the following command:
		vcd file OR_3.msim.vcd -direction
$end
$date
	Mon Apr 04 18:43:46 2022
$end
$version
	ModelSim Version 10.1d
$end
$timescale
	1ps
$end
$scope module OR_3_vlg_vec_tst $end
$var reg 1 ! IN1 $end
$var reg 1 " IN2 $end
$var reg 1 # IN3 $end
$var wire 1 $ OUT1 $end
$var wire 1 % sampler $end
$scope module i1 $end
$var wire 1 & gnd $end
$var wire 1 ' vcc $end
$var wire 1 ( unknown $end
$var tri1 1 ) devclrn $end
$var tri1 1 * devpor $end
$var tri1 1 + devoe $end
$var wire 1 , IN3~combout $end
$var wire 1 - IN1~combout $end
$var wire 1 . IN2~combout $end
$var wire 1 / OUT1~0_combout $end
$upscope $end
$upscope $end
$enddefinitions $end
#0
$dumpvars
0!
1"
1#
x$
x%
0&
1'
x(
1)
1*
1+
1,
0-
1.
x/
$end
#786
1/
#4153
1$
#10000
1!
0%
#10979
1-
#20000
0#
0!
1%
#20840
0,
#20979
0-
#30000
0"
1!
0%
#30979
1-
0.
#40000
1#
0!
1%
#40840
1,
#40979
0-
#42040
0/
#45407
0$
#46087
1/
#49454
1$
#50000
1!
0%
#50979
1-
#60000
1"
0#
0!
1%
#60840
0,
#60979
0-
1.
#70000
0"
1#
0%
#70840
1,
#70979
0.
#71765
0/
#75132
0$
#76087
1/
#79454
1$
#80000
0#
1%
#80840
0,
#86087
0/
#89454
0$
#90000
1!
1"
0%
#90979
1.
1-
#91765
1/
#95132
1$
#100000
0"
1%
#100979
0.
#110000
0!
0%
#110979
0-
#112040
0/
#115407
0$
#120000
1!
1%
#120979
1-
#122040
1/
#125407
1$
#140000
1"
0!
0%
#140979
0-
1.
#150000
1#
0"
1!
1%
#150840
1,
#150979
1-
0.
#160000
0!
0%
#160979
0-
#170000
1"
1%
#170979
1.
#180000
1!
0%
#180979
1-
#190000
0!
1%
#190979
0-
#220000
0#
1!
0%
#220840
0,
#220979
1-
#230000
0"
1#
0!
1%
#230840
1,
#230979
0-
0.
#232040
0/
#235407
0$
#236087
1/
#239454
1$
#240000
0#
0%
#240840
0,
#246087
0/
#249454
0$
#250000
1!
1#
1%
#250840
1,
#250979
1-
#252040
1/
#255407
1$
#260000
0#
0%
#260840
0,
#280000
1#
1%
#280840
1,
#300000
0!
0#
0%
#300840
0,
#300979
0-
#306087
0/
#309454
0$
#310000
1"
1#
1%
#310840
1,
#310979
1.
#311765
1/
#315132
1$
#330000
1!
0#
0%
#330840
0,
#330979
1-
#340000
0"
0!
1%
#340979
0-
0.
#342040
0/
#345407
0$
#350000
1#
1"
1!
0%
#350840
1,
#350979
1-
1.
#351765
1/
#355132
1$
#360000
0#
0"
0!
1%
#360840
0,
#360979
0-
0.
#366087
0/
#369454
0$
#370000
1!
0%
#370979
1-
#372040
1/
#375407
1$
#380000
1#
1%
#380840
1,
#390000
1"
0#
0%
#390840
0,
#390979
1.
#400000
0"
1%
#400979
0.
#410000
1#
1"
0%
#410840
1,
#410979
1.
#420000
0!
1%
#420979
0-
#430000
0#
0%
#430840
0,
#440000
1!
1#
1%
#440840
1,
#440979
1-
#450000
0"
0!
0#
0%
#450840
0,
#450979
0-
0.
#456087
0/
#459454
0$
#470000
1"
1%
#470979
1.
#471765
1/
#475132
1$
#480000
1!
0"
0%
#480979
0.
1-
#490000
1"
1%
#490979
1.
#500000
1#
0!
0%
#500840
1,
#500979
0-
#530000
0"
1%
#530979
0.
#540000
1"
0%
#540979
1.
#550000
1!
1%
#550979
1-
#560000
0"
0%
#560979
0.
#570000
0#
0!
1%
#570840
0,
#570979
0-
#576087
0/
#579454
0$
#580000
1"
1!
0%
#580979
1-
1.
#581765
1/
#585132
1$
#600000
1#
1%
#600840
1,
#610000
0"
0#
0%
#610840
0,
#610979
0.
#620000
1"
1#
1%
#620840
1,
#620979
1.
#630000
0#
0%
#630840
0,
#640000
0!
0"
1%
#640979
0.
0-
#642040
0/
#645407
0$
#660000
1#
1"
0%
#660840
1,
#660979
1.
#661765
1/
#665132
1$
#670000
1!
0"
1%
#670979
0.
1-
#680000
0#
0%
#680840
0,
#690000
1#
1%
#690840
1,
#700000
0!
1"
0#
0%
#700840
0,
#700979
1.
0-
#710000
0"
1%
#710979
0.
#711765
0/
#715132
0$
#720000
1!
1#
1"
0%
#720840
1,
#720979
1.
1-
#721765
1/
#725132
1$
#730000
0!
0#
1%
#730840
0,
#730979
0-
#740000
0"
1!
0%
#740979
1-
0.
#750000
1"
1%
#750979
1.
#760000
1#
0%
#760840
1,
#770000
0#
1%
#770840
0,
#780000
0"
1#
0%
#780840
1,
#780979
0.
#790000
0!
1%
#790979
0-
#800000
1"
0%
#800979
1.
#810000
0#
1!
0"
1%
#810840
0,
#810979
0.
1-
#820000
0!
1"
0%
#820979
1.
0-
#830000
1#
1!
1%
#830840
1,
#830979
1-
#840000
0"
0!
0%
#840979
0-
0.
#850000
1!
1%
#850979
1-
#860000
0#
0!
0%
#860840
0,
#860979
0-
#866087
0/
#869454
0$
#870000
1"
1#
1%
#870840
1,
#870979
1.
#871765
1/
#875132
1$
#880000
0"
0%
#880979
0.
#890000
1!
0#
1%
#890840
0,
#890979
1-
#910000
1"
0!
0%
#910979
0-
1.
#920000
0"
1%
#920979
0.
#921765
0/
#925132
0$
#930000
1!
0%
#930979
1-
#932040
1/
#935407
1$
#940000
1#
0!
1%
#940840
1,
#940979
0-
#942040
0/
#945407
0$
#946087
1/
#949454
1$
#950000
1"
0%
#950979
1.
#960000
0"
1%
#960979
0.
#970000
0#
1!
1"
0%
#970840
0,
#970979
1.
1-
#990000
0"
1%
#990979
0.
