Assignment 1/Basic gates/AND2/simulation/qsim/AND2.msim.vcd
$comment
	File created using the following command:
		vcd file AND2.msim.vcd -direction
$end
$date
	Mon Apr 04 18:35:48 2022
$end
$version
	ModelSim Version 10.1d
$end
$timescale
	1ps
$end
$scope module AND_2_vlg_vec_tst $end
$var reg 1 ! IN1 $end
$var reg 1 " IN2 $end
$var wire 1 # OUT1 $end
$var wire 1 $ sampler $end
$scope module i1 $end
$var wire 1 % gnd $end
$var wire 1 & vcc $end
$var wire 1 ' unknown $end
$var tri1 1 ( devclrn $end
$var tri1 1 ) devpor $end
$var tri1 1 * devoe $end
$var wire 1 + IN1~combout $end
$var wire 1 , IN2~combout $end
$var wire 1 - OUT1~0_combout $end
$upscope $end
$upscope $end
$enddefinitions $end
#0
$dumpvars
0!
1"
x#
x$
0%
1&
x'
1(
1)
1*
0+
1,
x-
$end
#1034
0-
#4401
0#
#10000
1!
0"
0$
#10979
0,
1+
#30000
1"
1$
#30979
1,
#31766
1-
#35133
1#
#40000
0!
0$
#40979
0+
#42013
0-
#45380
0#
#50000
1!
1$
#50979
1+
#52013
1-
#55380
1#
#60000
0"
0$
#60979
0,
#61766
0-
#65133
0#
#70000
1"
1$
#70979
1,
#71766
1-
#75133
1#
#100000
0"
0$
#100979
0,
#101766
0-
#105133
0#
#110000
0!
1$
#110979
0+
#120000
1"
1!
0$
#120979
1+
1,
#122013
1-
#125380
1#
#130000
0!
1$
#130979
0+
#132013
0-
#135380
0#
#150000
1!
0$
#150979
1+
#152013
1-
#155380
1#
#160000
0"
1$
#160979
0,
#161766
0-
#165133
0#
#180000
0!
0$
#180979
0+
#190000
1"
1!
1$
#190979
1+
1,
#192013
1-
#195380
1#
#200000
0"
0$
#200979
0,
#201766
0-
#205133
0#
#210000
1"
1$
#210979
1,
#211766
1-
#215133
1#
#230000
0"
0$
#230979
0,
#231766
0-
#235133
0#
#240000
0!
1"
1$
#240979
1,
0+
#260000
1!
0$
#260979
1+
#262013
1-
#265380
1#
#270000
0"
1$
#270979
0,
#271766
0-
#275133
0#
#280000
0!
1"
0$
#280979
1,
0+
#290000
1!
0"
1$
#290979
0,
1+
#300000
0!
1"
0$
#300979
1,
0+
#320000
0"
1$
#320979
0,
#330000
1"
0$
#330979
1,
#340000
1!
0"
1$
#340979
0,
1+
#350000
1"
0$
#350979
1,
#351766
1-
#355133
1#
#360000
0!
0"
1$
#360979
0,
0+
#361766
0-
#365133
0#
#370000
1!
0$
#370979
1+
#380000
0!
1$
#380979
0+
#390000
1!
0$
#390979
1+
#410000
1"
0!
1$
#410979
0+
1,
#420000
1!
0$
#420979
1+
#422013
1-
#425380
1#
#440000
0"
0!
1$
#440979
0+
0,
#441766
0-
#445133
0#
#460000
1"
0$
#460979
1,
#480000
1!
1$
#480979
1+
#482013
1-
#485380
1#
#490000
0"
0$
#490979
0,
#491766
0-
#495133
0#
#500000
1"
1$
#500979
1,
#501766
1-
#505133
1#
#510000
0!
0"
0$
#510979
0,
0+
#511766
0-
#515133
0#
#520000
1!
1$
#520979
1+
#530000
1"
0$
#530979
1,
#531766
1-
#535133
1#
#540000
0!
1$
#540979
0+
#542013
0-
#545380
0#
#560000
1!
0$
#560979
1+
#562013
1-
#565380
1#
#570000
0!
1$
#570979
0+
#572013
0-
#575380
0#
#580000
0"
0$
#580979
0,
#590000
1!
1$
#590979
1+
#620000
1"
0$
#620979
1,
#621766
1-
#625133
1#
#640000
0"
1$
#640979
0,
#641766
0-
#645133
0#
#660000
1"
0$
#660979
1,
#661766
1-
#665133
1#
#670000
0"
1$
#670979
0,
#671766
0-
#675133
0#
#680000
1"
0$
#680979
1,
#681766
1-
#685133
1#
#700000
0!
0"
1$
#700979
0,
0+
#701766
0-
#705133
0#
#710000
1!
0$
#710979
1+
#730000
0!
1$
#730979
0+
#740000
1!
0$
#740979
1+
#750000
0!
1$
#750979
0+
#770000
1"
0$
#770979
1,
#780000
1!
0"
1$
#780979
0,
1+
#790000
0!
0$
#790979
0+
#800000
1!
1$
#800979
1+
#810000
1"
0!
0$
#810979
0+
1,
#820000
0"
1$
#820979
0,
#830000
1!
1"
0$
#830979
1,
1+
#832013
1-
#835380
1#
#840000
0!
0"
1$
#840979
0,
0+
#841766
0-
#845133
0#
#850000
1!
1"
0$
#850979
1,
1+
#852013
1-
#855380
1#
#870000
0"
1$
#870979
0,
#871766
0-
#875133
0#
#880000
0!
1"
0$
#880979
1,
0+
#900000
1!
0"
1$
#900979
0,
1+
#910000
0!
0$
#910979
0+
#920000
1!
1$
#920979
1+
#930000
1"
0!
0$
#930979
0+
1,
#940000
0"
1!
1$
#940979
1+
0,
#950000
1"
0!
0$
#950979
0+
1,
#960000
1!
1$
#960979
1+
#962013
1-
#965380
1#
#970000
0"
0!
0$
#970979
0+
0,
#971766
0-
#975133
0#
#980000
1"
1$
#980979
1,
#990000
1!
0$
#990979
1+
#992013
1-
#995380
1#
