Assignment 1/Basic gates/OR2/simulation/qsim/OR_2.msim.vcd
$comment
	File created using the following command:
		vcd file OR_2.msim.vcd -direction
$end
$date
	Mon Apr 04 18:39:45 2022
$end
$version
	ModelSim Version 10.1d
$end
$timescale
	1ps
$end
$scope module OR_2_vlg_vec_tst $end
$var reg 1 ! IN1 $end
$var reg 1 " IN2 $end
$var wire 1 # OUT1 $end
$var wire 1 $ sampler $end
$scope module i1 $end
$var wire 1 % gnd $end
$var wire 1 & vcc $end
$var wire 1 ' unknown $end
$var tri1 1 ( devclrn $end
$var tri1 1 ) devpor $end
$var tri1 1 * devoe $end
$var wire 1 + IN1~combout $end
$var wire 1 , IN2~combout $end
$var wire 1 - OUT1~0_combout $end
$upscope $end
$upscope $end
$enddefinitions $end
#0
$dumpvars
1!
1"
x#
x$
0%
1&
x'
1(
1)
1*
1+
1,
x-
$end
#786
1-
#4153
1#
#20000
0"
0$
#20979
0,
#30000
1"
1$
#30979
1,
#50000
0!
0$
#50979
0+
#60000
0"
1$
#60979
0,
#61765
0-
#65132
0#
#70000
1!
0$
#70979
1+
#72040
1-
#75407
1#
#80000
1"
1$
#80979
1,
#90000
0!
0"
0$
#90979
0,
0+
#92040
0-
#95407
0#
#120000
1!
1$
#120979
1+
#122040
1-
#125407
1#
#150000
1"
0!
0$
#150979
0+
1,
#160000
0"
1!
1$
#160979
1+
0,
#170000
1"
0$
#170979
1,
#180000
0!
1$
#180979
0+
#210000
1!
0$
#210979
1+
#230000
0!
1$
#230979
0+
#240000
0"
1!
0$
#240979
1+
0,
#260000
1"
1$
#260979
1,
#270000
0"
0$
#270979
0,
#290000
0!
1"
1$
#290979
1,
0+
#300000
1!
0$
#300979
1+
#320000
0!
1$
#320979
0+
#330000
1!
0$
#330979
1+
#340000
0"
1$
#340979
0,
#350000
1"
0$
#350979
1,
#360000
0!
0"
1$
#360979
0,
0+
#362040
0-
#365407
0#
#370000
1"
0$
#370979
1,
#371765
1-
#375132
1#
#380000
0"
1$
#380979
0,
#381765
0-
#385132
0#
#400000
1"
0$
#400979
1,
#401765
1-
#405132
1#
#410000
1!
1$
#410979
1+
#420000
0"
0$
#420979
0,
#430000
0!
1"
1$
#430979
1,
0+
#450000
1!
0$
#450979
1+
#460000
0"
0!
1$
#460979
0+
0,
#462040
0-
#465407
0#
#470000
1"
1!
0$
#470979
1+
1,
#471765
1-
#475132
1#
#500000
0!
1$
#500979
0+
#510000
0"
0$
#510979
0,
#511765
0-
#515132
0#
#530000
1!
1$
#530979
1+
#532040
1-
#535407
1#
#540000
1"
0!
0$
#540979
0+
1,
#550000
1!
1$
#550979
1+
#560000
0!
0$
#560979
0+
#570000
0"
1$
#570979
0,
#571765
0-
#575132
0#
#580000
1!
1"
0$
#580979
1,
1+
#581765
1-
#585132
1#
#590000
0!
1$
#590979
0+
#600000
0"
1!
0$
#600979
1+
0,
#630000
0!
1$
#630979
0+
#632040
0-
#635407
0#
#640000
1"
1!
0$
#640979
1+
1,
#641765
1-
#645132
1#
#650000
0!
1$
#650979
0+
#660000
0"
1!
0$
#660979
1+
0,
#670000
0!
1$
#670979
0+
#672040
0-
#675407
0#
#680000
1"
0$
#680979
1,
#681765
1-
#685132
1#
#700000
1!
1$
#700979
1+
#710000
0"
0$
#710979
0,
#730000
0!
1$
#730979
0+
#732040
0-
#735407
0#
#740000
1"
1!
0$
#740979
1+
1,
#741765
1-
#745132
1#
#750000
0"
1$
#750979
0,
#760000
0!
0$
#760979
0+
#762040
0-
#765407
0#
#790000
1"
1$
#790979
1,
#791765
1-
#795132
1#
#800000
1!
0"
0$
#800979
0,
1+
#810000
1"
1$
#810979
1,
#820000
0!
0"
0$
#820979
0,
0+
#822040
0-
#825407
0#
#830000
1"
1$
#830979
1,
#831765
1-
#835132
1#
#850000
0"
0$
#850979
0,
#851765
0-
#855132
0#
#870000
1"
1$
#870979
1,
#871765
1-
#875132
1#
#890000
0"
0$
#890979
0,
#891765
0-
#895132
0#
#900000
1"
1$
#900979
1,
#901765
1-
#905132
1#
#910000
1!
0"
0$
#910979
0,
1+
#920000
0!
1$
#920979
0+
#922040
0-
#925407
0#
#930000
1"
0$
#930979
1,
#931765
1-
#935132
1#
#940000
0"
1$
#940979
0,
#941765
0-
#945132
0#
#950000
1"
0$
#950979
1,
#951765
1-
#955132
1#
#960000
1!
1$
#960979
1+
#970000
0"
0$
#970979
0,
#980000
0!
1$
#980979
0+
#982040
0-
#985407
0#
#990000
1"
0$
#990979
1,
#991765
1-
#995132
1#
