Assignment 1/fulladder_16/simulation/qsim/FULLADDER_16.msim.vcd
$comment
	File created using the following command:
		vcd file FULLADDER_16.msim.vcd -direction
$end
$date
	Mon Apr 04 20:09:01 2022
$end
$version
	ModelSim Version 10.1d
$end
$timescale
	1ps
$end
$scope module FULLADDER_16_vlg_vec_tst $end
$var reg 1 ! cin $end
$var reg 16 " in1 [15:0] $end
$var reg 16 # in2 [15:0] $end
$var wire 1 $ cout $end
$var wire 1 % overflow $end
$var wire 1 & sum [15] $end
$var wire 1 ' sum [14] $end
$var wire 1 ( sum [13] $end
$var wire 1 ) sum [12] $end
$var wire 1 * sum [11] $end
$var wire 1 + sum [10] $end
$var wire 1 , sum [9] $end
$var wire 1 - sum [8] $end
$var wire 1 . sum [7] $end
$var wire 1 / sum [6] $end
$var wire 1 0 sum [5] $end
$var wire 1 1 sum [4] $end
$var wire 1 2 sum [3] $end
$var wire 1 3 sum [2] $end
$var wire 1 4 sum [1] $end
$var wire 1 5 sum [0] $end
$var wire 1 6 sampler $end
$scope module i1 $end
$var wire 1 7 gnd $end
$var wire 1 8 vcc $end
$var wire 1 9 unknown $end
$var tri1 1 : devclrn $end
$var tri1 1 ; devpor $end
$var tri1 1 < devoe $end
$var wire 1 = cin~combout $end
$var wire 1 > FA0|V0|V1|V4|OUT1~1_cout $end
$var wire 1 ? FA0|V0|V1|V4|OUT1~2_combout $end
$var wire 1 @ FA0|V0|V1|V4|OUT1~3 $end
$var wire 1 A FA0|V0|V1|V4|OUT1~4_combout $end
$var wire 1 B FA0|V0|V1|V4|OUT1~5 $end
$var wire 1 C FA0|V0|V1|V4|OUT1~6_combout $end
$var wire 1 D FA0|V0|V1|V4|OUT1~7 $end
$var wire 1 E FA0|V0|V1|V4|OUT1~8_combout $end
$var wire 1 F FA0|V0|V1|V4|OUT1~9 $end
$var wire 1 G FA0|V0|V1|V4|OUT1~10_combout $end
$var wire 1 H FA0|V0|V1|V4|OUT1~11 $end
$var wire 1 I FA0|V0|V1|V4|OUT1~12_combout $end
$var wire 1 J FA0|V0|V1|V4|OUT1~13 $end
$var wire 1 K FA0|V0|V1|V4|OUT1~14_combout $end
$var wire 1 L FA0|V0|V1|V4|OUT1~15 $end
$var wire 1 M FA0|V0|V1|V4|OUT1~16_combout $end
$var wire 1 N FA0|V0|V1|V4|OUT1~17 $end
$var wire 1 O FA0|V0|V1|V4|OUT1~18_combout $end
$var wire 1 P FA0|V0|V1|V4|OUT1~19 $end
$var wire 1 Q FA0|V0|V1|V4|OUT1~20_combout $end
$var wire 1 R FA0|V0|V1|V4|OUT1~21 $end
$var wire 1 S FA0|V0|V1|V4|OUT1~22_combout $end
$var wire 1 T FA0|V0|V1|V4|OUT1~23 $end
$var wire 1 U FA0|V0|V1|V4|OUT1~24_combout $end
$var wire 1 V FA0|V0|V1|V4|OUT1~25 $end
$var wire 1 W FA0|V0|V1|V4|OUT1~26_combout $end
$var wire 1 X FA0|V0|V1|V4|OUT1~27 $end
$var wire 1 Y FA0|V0|V1|V4|OUT1~28_combout $end
$var wire 1 Z FA0|V0|V1|V4|OUT1~29 $end
$var wire 1 [ FA0|V0|V1|V4|OUT1~30_combout $end
$var wire 1 \ FA0|V0|V1|V4|OUT1~31 $end
$var wire 1 ] FA0|V0|V1|V4|OUT1~32_combout $end
$var wire 1 ^ FA15|V0|V1|V4|OUT1~0_combout $end
$var wire 1 _ FA15|V4|V1|OUT1~0_combout $end
$var wire 1 ` OFlow|V4|OUT1~0_combout $end
$var wire 1 a in2~combout [15] $end
$var wire 1 b in2~combout [14] $end
$var wire 1 c in2~combout [13] $end
$var wire 1 d in2~combout [12] $end
$var wire 1 e in2~combout [11] $end
$var wire 1 f in2~combout [10] $end
$var wire 1 g in2~combout [9] $end
$var wire 1 h in2~combout [8] $end
$var wire 1 i in2~combout [7] $end
$var wire 1 j in2~combout [6] $end
$var wire 1 k in2~combout [5] $end
$var wire 1 l in2~combout [4] $end
$var wire 1 m in2~combout [3] $end
$var wire 1 n in2~combout [2] $end
$var wire 1 o in2~combout [1] $end
$var wire 1 p in2~combout [0] $end
$var wire 1 q in1~combout [15] $end
$var wire 1 r in1~combout [14] $end
$var wire 1 s in1~combout [13] $end
$var wire 1 t in1~combout [12] $end
$var wire 1 u in1~combout [11] $end
$var wire 1 v in1~combout [10] $end
$var wire 1 w in1~combout [9] $end
$var wire 1 x in1~combout [8] $end
$var wire 1 y in1~combout [7] $end
$var wire 1 z in1~combout [6] $end
$var wire 1 { in1~combout [5] $end
$var wire 1 | in1~combout [4] $end
$var wire 1 } in1~combout [3] $end
$var wire 1 ~ in1~combout [2] $end
$var wire 1 !! in1~combout [1] $end
$var wire 1 "! in1~combout [0] $end
$upscope $end
$upscope $end
$enddefinitions $end
#0
$dumpvars
0!
b1011101111111100 "
b110010011101000 #
x$
x%
x5
x4
x3
x2
x1
x0
x/
x.
x-
x,
x+
x*
x)
x(
x'
x&
x6
07
18
x9
1:
1;
1<
0=
x>
x?
x@
xA
xB
xC
xD
xE
xF
xG
xH
xI
xJ
xK
xL
xM
xN
xO
xP
xQ
xR
xS
xT
xU
xV
xW
xX
xY
xZ
x[
x\
x]
x^
x_
x`
0p
0o
0n
1m
0l
1k
1j
1i
0h
0g
1f
0e
0d
1c
1b
0a
0"!
0!!
1~
1}
1|
1{
1z
1y
1x
1w
0v
1u
1t
1s
0r
1q
$end
#1945
1@
#5548
0B
#5592
0`
#5619
1D
#5814
0L
#5880
1F
#5901
0>
#5903
1Z
#5943
0A
#5951
0H
#5958
1C
#5990
1J
#6012
1N
#6029
0E
#6062
0\
#6083
0P
#6154
1R
#6224
1M
#6225
0T
#6290
0G
#6296
1V
#6311
0?
#6313
0[
#6361
1I
#6367
0X
#6400
1K
#6422
0O
#6472
1]
#6493
0Q
#6564
0S
#6635
0U
#6706
0W
#6777
1Y
#7004
1_
#7010
0^
#9005
0%
#9327
04
#9435
02
#9577
13
#9902
1.
#10036
0'
#10074
1/
#10137
01
#10191
0)
#10225
10
#10381
05
#10410
0,
#10432
0+
#10557
0-
#10616
0*
#10657
1(
#10704
1$
#10879
0&
#40000
b1111101111111100 "
b1111001111111100 "
b1111000111111100 "
b1111000111011100 "
b1111000111001100 "
b1111000111000100 "
b1111000111000000 "
b1111000111000010 "
b1111000111000011 "
b10010011101000 #
b10011011101000 #
b10011010101000 #
b10011010001000 #
b10011010011000 #
b10011010011100 #
b10011010011110 #
b10011010011111 #
06
#40810
1n
#40820
1r
0k
1l
#40830
0|
0b
#40840
1"!
#40842
1o
#40850
0}
0~
1g
0j
#40860
0u
0w
1!!
#40880
0{
#40979
1p
#42899
1?
#46132
0K
#46141
0F
#46165
1E
#46322
0I
#46729
1H
#46741
1>
#46752
1G
#46776
1B
#46787
0V
#46812
0@
#46814
1U
#46847
0D
#46858
1X
#46870
0J
#46918
1F
#46969
15
#46989
0H
#47016
1L
#47151
0?
#47186
0C
#47197
1W
#47222
1A
#47257
0E
#47268
0Y
#47280
1K
#47328
0G
#47399
1I
#47426
0M
#50606
14
#50682
1)
#50795
1*
#50805
03
#51104
0.
#51148
0(
#51221
05
#80000
b111000111000011 "
b101000111000011 "
b101010111000011 "
b101010101000011 "
b101010100000011 "
b1010011010011111 #
b1011011010011111 #
b1011001010011111 #
b1011001110011111 #
b1011001100011111 #
b1011001100010111 #
b101010100100011 "
b101010100110011 "
b101010100111011 "
b101010100111111 "
b101010100111110 "
b1111001100010111 #
b1111000100010111 #
b1111000100010011 #
16
#80810
0n
#80820
1v
#80830
0s
1|
1b
1d
#80840
0y
0z
0"!
1h
#80842
0q
1a
#80850
1}
1~
0f
0g
0m
#80870
0i
#80880
1{
#86158
1O
#86165
1E
#86298
0X
#86321
0W
#86522
0R
#86549
1Q
#86566
1[
#86572
0N
#86593
1T
#86597
0K
#86741
0>
#86752
1G
#86757
0E
#86812
1@
#86870
1J
#86897
0I
#86932
1S
#86982
0O
#87003
0U
#87151
1?
#87222
0A
#87280
1K
#89806
0)
#90289
1'
#90466
1,
#90599
11
#90606
04
#90761
00
#90800
1+
#90984
0*
#91221
15
#120000
b100010100111110 "
b100010000111110 "
b1111100100010011 #
b1111100100110011 #
b1111100100100011 #
b1100010000111110 "
b1100000000111110 "
b1100000010111110 "
b1100000011111110 "
b111100100100011 #
b110100100100011 #
b110100000100011 #
b110100010100011 #
b110100010101011 #
b1100000011101110 "
b1100000011100110 "
b1100000011100010 "
b10100010101011 #
b10101010101011 #
06
#120820
0v
1k
0l
#120830
0|
0b
0d
#120840
1y
1z
0h
#120842
1q
0x
0a
#120850
0}
0~
1e
1g
1m
#120870
0t
1i
#126120
1U
#126135
1P
#126141
0F
#126165
1E
#126212
1H
#126298
1X
#126321
1W
#126369
0Z
#126528
1\
#126575
1D
#126583
0S
#126597
0K
#126599
1C
#126654
0L
#126708
1Y
#126752
0G
#126882
1N
#126938
0]
#126953
0W
#127064
1M
#127292
1O
#127470
0_
#127476
1^
#129571
12
#130101
1*
#130218
13
#130271
0/
#130451
0+
#130588
1(
#130599
01
#130742
1.
#131170
0$
#131345
1&
#131427
1-
#160000
b1000000011100010 "
b1000001011100010 "
b1000001011100000 "
b10101011101011 #
b10101011101001 #
b10101011101000 #
b1000001011000000 "
b1001001011000000 "
b10001011101000 #
b10001011001000 #
b1001011000000 "
b1010001011001000 #
b1010001001001000 #
b1010001001000000 #
b1001011010000 "
b1001011011000 "
b1110001001000000 #
b1110000001000000 #
16
#160820
0r
0k
#160830
1|
1b
#160842
0q
1a
0o
#160850
1}
0e
0g
1j
0m
#160860
1w
0!!
#160870
1t
0i
#160880
0{
#160979
0p
#162899
0?
#166120
0U
#166132
1K
#166141
1F
#166165
0E
#166298
0J
#166322
1I
#166390
0B
#166708
0K
#166729
0H
#166730
0F
#166757
1E
#166800
0C
#166801
1H
#166909
0M
#166953
1W
#166969
05
#167140
1G
#167211
0I
#170101
0*
#170419
03
#170438
1)
#170587
0.
#170987
11
#200000
b1101011011000 "
b11101011011000 "
b11101011011001 "
b1110000001000100 #
b11101111011001 "
b11101110011001 "
b1110000101000100 #
b11101110011101 "
b111101110011101 "
b111100110011101 "
b1110000100000100 #
b1110000100000110 #
b111100110111101 "
b1110100100000110 #
06
#200810
1n
#200820
1r
#200830
1s
#200840
0z
1"!
1h
#200842
1x
1o
#200850
1~
1e
0j
#200860
1u
0w
#200880
1{
#206120
1U
#206132
1K
#206135
0P
#206201
1L
#206272
0N
#206414
1A
#206575
0D
#206597
0K
#206611
1M
#206646
1F
#206682
0O
#206717
0H
#206733
1Z
#206741
1>
#206760
0Y
#206787
1V
#206788
1J
#206814
0U
#206858
0X
#206985
0E
#207039
0\
#207056
0G
#207151
1?
#207197
0W
#207198
1K
#207268
1Y
#207449
1]
#207981
1_
#207987
0^
#209798
14
#210289
1.
#210391
02
#210682
0)
#210817
0-
#210872
1/
#210903
01
#211221
15
#211681
1$
#211856
0&
#240000
b1100100100000110 #
b1100110100000110 #
b1100110100010110 #
b111110110111101 "
b1100110100010111 #
b110110110111101 "
b1100110100110111 #
b1100110110110111 #
b110110110101101 "
b110110110100101 "
b1100111110110111 #
b110010110100101 "
b100010110100101 "
b1100111110110011 #
b100010110100001 "
b100011110100001 "
b1100111111110011 #
b100011110000001 "
b1100011111110011 #
16
#240810
0n
#240820
1k
1l
1v
#240830
0s
0|
#240850
0e
1f
1g
1j
0}
0~
#240860
0u
1w
#240870
1i
0t
#240872
0c
#240880
0{
#240979
1p
#242875
0@
#242899
0?
#242946
1B
#243285
0A
#243356
1C
#246096
0V
#246120
1U
#246132
0K
#246141
0F
#246165
1E
#246167
1X
#246201
0L
#246238
0Z
#246272
1N
#246322
1I
#246395
1R
#246506
1W
#246559
0T
#246575
1D
#246648
0[
#246669
04
#246682
1O
#246729
1H
#246752
1G
#246760
0Y
#246800
0J
#246805
1S
#246946
1L
#246953
0W
#246969
05
#246975
13
#246985
0E
#247210
1K
#247356
0M
#250101
1*
#250186
10
#250371
0'
#250599
11
#250640
0(
#250673
1+
#250817
1-
#251034
0.
#280000
b100011100000001 "
b1100011100000001 "
b100011111110011 #
b100011111111011 #
b1100011100000000 "
b1100011101000000 "
b100011011111011 #
b1000011101000000 "
b100011011111001 #
b100011011101001 #
b1000001101000000 "
b100011011001001 #
b100011001001001 #
b1000001101010000 "
b1000001101011000 "
b1000101101011000 "
06
#280820
0r
0v
0k
0l
#280830
1|
#280840
0y
1z
0"!
0h
#280842
1q
0a
0o
#280850
1}
1m
#280860
1u
#280870
0i
#286158
0O
#286165
1E
#286313
0G
#286322
0I
#286390
0B
#286414
1A
#286572
0N
#286583
0S
#286597
0K
#286643
1P
#286654
0L
#286730
1F
#286741
0>
#286757
0E
#286787
1V
#286800
0C
#286801
0H
#286812
1@
#286814
0U
#286970
1[
#286982
1O
#287039
1\
#287053
0Q
#287064
1M
#287151
1?
#287197
1W
#287211
1I
#287222
0A
#287449
0]
#287981
0_
#287987
1^
#290160
01
#290271
0/
#290419
03
#290451
0+
#290682
1)
#290693
1'
#290742
1.
#290795
0*
#290970
0,
#291221
15
#291681
0$
#291856
1&
#320000
b101011001001001 #
b1000101101011010 "
b1011001001001 #
b1000101001011010 "
b1001001001001 #
b1001001001000 #
b1001101001011010 "
b1000001001000 #
b1001101001011110 "
b1001101001111110 "
b1001101011111110 "
b1101011111110 "
b1001000001001000 #
b1001000101001000 #
b1001000101011000 #
b1101011101110 "
b1101011100110 "
b1001011100110 "
16
#320820
1l
#320830
0b
1d
0|
#320840
1h
1y
#320842
1a
0q
0x
#320850
0f
0g
0}
1~
#320860
0u
1!!
#320870
1t
#320880
1{
#320979
0p
#322899
0?
#326141
0F
#326165
1E
#326298
0X
#326321
0W
#326522
0R
#326526
1T
#326549
1Q
#326566
0[
#326572
1N
#326596
0M
#326599
1C
#326643
0P
#326708
1Y
#326714
1R
#326729
1H
#326752
1G
#326787
0V
#326803
1A
#326969
05
#326982
0O
#327053
0Q
#327124
1S
#329571
12
#329806
0)
#330187
14
#330218
13
#330274
0.
#330289
0'
#330588
1(
#330599
11
#330992
1+
#331117
0-
#360000
b11001011100110 "
b11000011100110 "
b1001100101011000 #
b1001100101010000 #
b11000011100111 "
b11000010100111 "
b111000010100111 "
b1001100101110000 #
b111000110100111 "
b110000110100111 "
b1001101101110000 #
b110000110100011 "
b110000110000011 "
b1110000110000011 "
b1101101110000 #
b1101101100000 #
06
#360820
1r
1k
0l
#360830
1s
#360840
0z
1"!
#360842
1q
1x
0a
#360850
0~
1e
1g
0m
#360860
0w
#360870
0t
#360880
0{
#366120
1U
#366298
1J
#366313
0G
#366322
0I
#366411
1O
#366599
0C
#366733
1Z
#366741
1>
#366757
0E
#366760
0Y
#366870
0J
#366892
0\
#366897
1I
#366929
1X
#366953
1W
#367000
0Z
#367016
1L
#367087
0N
#367151
1?
#367159
1\
#367280
1K
#367339
1Y
#367410
1[
#367426
1M
#367497
0O
#370101
1*
#370160
01
#370163
02
#370218
03
#370438
1)
#370954
1/
#371104
1.
#371133
1'
#371221
15
#400000
b11101101100000 #
b11101101100100 #
b11101101100110 #
b1110010110000011 "
b10101101100110 #
b1110010110000001 "
b10111101100110 #
b10111101100111 #
b1110010110001001 "
b1100010110001001 "
b1100010110001000 "
b1000010110001000 "
b1000010010001000 "
b1001010010001000 "
b1001010010001100 "
b1001010010101100 "
b10111101110111 #
16
#400810
1n
#400820
1l
0r
1v
#400830
0d
0s
#400840
0"!
#400842
1o
0x
#400850
1f
1}
1~
#400860
0!!
#400870
1t
#400872
1c
#400880
1{
#400979
1p
#402875
0@
#402899
0?
#402946
1B
#403285
0A
#403356
1C
#406165
1E
#406313
1G
#406321
0W
#406387
1P
#406411
1O
#406458
0R
#406480
0D
#406526
0T
#406551
1F
#406597
1V
#406622
0H
#406668
0X
#406669
04
#406739
1Z
#406741
0>
#406797
1Q
#406812
1@
#406868
0S
#406870
1J
#406883
0B
#406890
0E
#406936
0U
#406961
0G
#406969
05
#406975
13
#407016
0L
#407078
0Y
#407087
1N
#407151
1?
#407158
0P
#407222
1A
#407229
1R
#407280
0K
#407293
0C
#407426
0M
#407497
0O
#407568
0Q
#407639
1S
#409806
0)
#410606
14
#410912
03
#410917
0*
#410954
0/
#410958
0(
#411104
0.
#411221
15
#440000
b10111111110111 #
b110111111110111 #
b1001010000101100 "
b1001110000101100 "
b1001111000101100 "
b110011111110111 #
b1001111001101100 "
b110011111010111 #
b110010111010111 #
b110010111010101 #
b1001111001101110 "
b1001111001100110 "
b1001111001100111 "
b1001111101100111 "
b1000111101100111 "
b1000111101100011 "
b110010111000101 #
06
#440820
0k
0l
#440830
1b
#440840
0y
1z
1"!
#440842
0o
1x
#440850
0e
0g
0}
0~
#440860
1u
1w
1!!
#440870
1i
0t
#446096
0V
#446120
1U
#446141
0F
#446165
1E
#446167
1X
#446238
0Z
#446289
1H
#446360
0J
#446411
1O
#446506
1W
#446575
1D
#446577
1Y
#446599
1C
#446741
1>
#446787
1V
#446812
0@
#446814
0U
#446883
1B
#446954
0D
#447151
0?
#447222
0A
#447293
0C
#449571
12
#449991
1)
#450457
1(
#450546
1-
#450606
04
#451221
05
#480000
b110010110000101 #
b1110010110000101 #
b1100010110000101 #
b1100010110000001 #
b1100000110000001 #
b1100000110000000 #
b1000000110000000 #
b1000111111100011 "
b1000011111100011 "
b1000010111100011 "
b1000000110000010 #
b1000010111100001 "
b1000010111101001 "
b1000010111101000 "
b1000010011101000 "
b1001010011101000 "
16
#480810
0n
#480830
0b
#480840
1y
0"!
#480842
1a
1o
0x
#480850
0f
0j
1}
#480860
0u
0w
0!!
#480870
1t
#480872
0c
#480979
0p
#482875
1@
#482899
1?
#482946
0B
#483017
1D
#483285
1A
#483356
1C
#483427
0E
#486105
1`
#486106
1_
#486107
0^
#486132
1K
#486165
1E
#486201
1L
#486395
0R
#486411
0O
#486419
1Q
#486439
0Y
#486466
1T
#486503
0C
#486566
0[
#486669
14
#486741
0>
#486787
0V
#486969
15
#486975
13
#487151
0?
#489518
1%
#489806
1$
1/
#489976
0&
#490122
03
#490289
0'
#490319
0(
#490336
1,
#490546
0-
#491221
05
#520000
b1000000110001010 #
b1010011101000 "
b1000011101000 "
b11000011101000 "
b111000011101000 "
b1000100110001010 #
b1000101110001010 #
b1000101110011010 #
b1000101111011010 #
b1010101111011010 #
b1010101111011110 #
b1010111111011110 #
b1010111111011111 #
b1110111111011111 #
b111000001101000 "
b111000001101010 "
b111000001101011 "
b111000101101011 "
06
#520810
1n
#520820
1l
1r
0v
#520830
1b
1s
#520840
0y
1"!
#520842
0q
1x
#520850
1e
1f
1g
1j
1m
#520860
1!!
#520872
1c
#520979
1p
#522899
1?
#526120
1U
#526132
0K
#526201
0L
#526313
1G
#526411
1O
#526434
0`
#526465
0_
#526466
1^
#526503
1C
#526522
1R
#526549
0Q
#526593
0T
#526664
1V
#526730
1F
#526733
1Z
#526735
0X
#526741
1>
#526757
0E
#526776
1B
#526801
0H
#526803
0A
#526812
0@
#526847
0D
#526872
1J
#526932
0S
#526969
15
#527003
0U
#527039
0\
#527074
0W
#527140
0G
#527143
1[
#527145
1Y
#527151
0?
#527186
0C
#527211
0I
#527222
1A
#527257
1E
#527282
1K
#527449
1]
#527981
1_
#527987
0^
#529847
0%
#530466
0,
#530546
1-
#530559
0)
#530800
0+
#530866
1'
#531025
1(
#531075
00
#531221
05
#560000
b111000101111011 "
b1111111111011111 #
b111000101011011 "
b1111111101011111 #
b111000100011011 "
b1111111101111111 #
b111000100011111 "
b111111101111111 #
b111001100011111 "
b111001100010111 "
b110001100010111 "
b110011100010111 "
b100011100010111 "
b11100010111 "
b111011101111111 #
b111010101111111 #
b111010101101111 #
b101010101101111 #
b101010101101011 #
b101000101101011 #
b11000010111 "
16
#560810
0n
#560820
0r
1v
1k
0l
#560830
0s
1|
1d
#560840
0z
#560842
0x
0a
#560850
0}
1~
0e
0f
0g
#560860
1w
#560870
0t
0i
#560872
0c
#560880
0{
#566096
0V
#566105
1`
#566106
0_
#566107
1^
#566120
1U
#566165
0E
#566289
1H
#566313
1G
#566411
0O
#566597
0K
#566729
0H
#566733
0Z
#566752
0G
#566882
0N
#566892
1\
#566909
1M
#566929
1X
#566953
1P
1W
#567024
0R
#567095
1T
#567292
1O
#567302
0]
#567339
0Y
#567363
1Q
#567434
1S
#567505
0U
#567839
0`
#567840
0^
#569571
02
#569806
0$
#570271
0/
#570438
1)
#570587
1.
#571219
0(
#571280
1,
#571302
1+
#600000
b101000001101011 #
b111000010111 "
b1000111000010111 "
b1000001101011 #
b1000111000010101 "
b1000111000000101 "
b1101011 #
b1001011 #
b1000110000000101 "
b1000100000000101 "
b1010100000000101 "
b1110100000000101 "
b100001001011 #
b101001001011 #
b101001011011 #
b101001011111 #
06
#600810
1n
#600820
0k
1l
1r
0v
#600830
0b
0d
1s
0|
#600840
0h
#600842
1q
#600850
1e
1g
#600860
1u
0w
0!!
#606120
1U
#606158
0O
#606298
0J
#606313
1G
#606321
0W
#606322
1I
#606444
1L
#606466
1^
#606503
1C
#606583
0S
#606708
1K
#606752
0G
#606760
1Y
#606787
1V
#606803
0A
#606814
0U
#606854
0M
#607197
1W
#610122
13
#610186
10
#610187
04
#610293
0-
#610335
1&
#610382
1/
#610451
0+
#610532
0.
#610640
1(
#640000
b101001011101 #
b101001010101 #
b1110100010000101 "
b1110100011000101 "
b1110100011001101 "
b101101010101 #
b110100011001101 "
b100101101010101 #
b110100011011101 "
b101101101010101 #
b101101101110101 #
b101001101110101 #
b101001101100101 #
16
#640820
1k
0l
#640830
1b
1d
1|
#640840
1h
1y
1z
#640842
0o
0q
#640850
0e
0m
1}
#646096
0V
#646120
1U
#646158
1O
#646165
1E
#646289
1H
#646313
1G
#646390
0B
#646414
1A
#646466
0^
#646566
0[
#646596
1M
#646597
0K
#646632
0\
#646654
0L
#646725
1N
#646729
0H
#646752
0G
#646757
0E
#646796
0P
#646800
1J
0C
#646867
1R
#647042
1]
#647064
0M
#647135
0O
#647139
0I
#647206
0Q
#647210
1K
#647277
1S
#647579
1`
#647580
1^
#649798
14
#650101
1*
#650289
0'
#650419
03
#650992
1%
#651003
00
#651123
0,
#651145
1+
#680000
b110100011111101 "
b1101001101100101 #
b111100011111101 "
b101100011111101 "
b1100011111101 "
b1100001111101 "
b1100001110101 "
b1101001001100101 #
b1001100001110101 "
b1001001001100101 #
b1001100001100101 "
b1001101001100101 #
b1001101001110101 #
06
#680820
0r
1l
#680830
0s
0|
0b
#680840
0y
0h
#680842
1q
1a
#680850
0}
1e
#680870
1t
#680880
1{
#686096
1V
#686105
0`
#686106
1_
#686120
0U
#686135
1P
#686141
0F
#686158
1O
#686165
1E
#686167
0X
#686206
0R
#686238
1Z
#686506
0W
#686545
1Q
#686572
0N
#686596
1M
#686616
0S
#686729
1H
#686733
0Z
#686752
1G
#686953
1W
#686982
0O
#687039
1\
#687449
0]
#687986
1`
#687987
0^
#689571
12
#689806
1$
#690101
0*
#690274
1.
#690462
1,
#690484
0+
#690599
11
#691856
0&
#720000
b1001101001110100 #
b1001100001100001 "
b1011101001110100 #
b1001000001100001 "
b1001001001100001 "
b1001011001100001 "
b1011100001110100 #
b1011100001110000 #
b1011100001110010 #
b1011100001111010 #
b1010100001111010 #
b1010100001011010 #
b10100001011010 #
b1000011001100001 "
b1010011001100001 "
b1110011001100001 "
b1110011011100001 "
b10100101011010 #
b10000101011010 #
b10000101001010 #
16
#720810
0n
#720820
0k
0l
1r
1v
#720830
0d
1s
#720840
1h
1y
#720842
0a
1o
#720850
0e
0g
1m
0~
#720860
0u
1w
#720870
0t
#720872
1c
#720979
0p
#722875
1@
#722899
1?
#723285
0A
#726096
0V
#726105
0`
#726106
0_
#726107
1^
#726120
1U
#726158
1O
#726167
1X
#726298
0J
#726313
0G
#726322
1I
#726414
1A
#726480
1D
#726572
1N
#726583
1S
#726596
0M
#726643
0P
#726669
04
#726708
0K
#726714
1R
#726733
1Z
#726760
0Y
#726785
0T
#726892
0\
#726953
0W
#726969
15
#726982
0O
#727053
0Q
#727124
0S
#727302
1]
#727834
1_
#727840
0^
#729518
0%
#729798
14
#730101
1*
#730160
01
#730186
10
#730274
0.
#730382
0/
#730438
0)
#730640
0(
#730970
0,
#760000
b10000100001010 #
b1110011011101001 "
b1110011011111001 "
b1110011011111101 "
b100001010 #
b1110111011111101 "
b1100001010 #
b1100000010 #
b1100100010 #
b1111111011111101 "
b1101111011111101 "
06
#760820
1k
#760830
0s
1|
#760850
1g
0j
0m
1}
1~
#760860
1u
#760870
1t
#760872
0c
#766132
1K
#766141
1F
#766165
0E
#766201
1L
#766272
0N
#766298
1J
#766322
0I
#766343
1P
#766415
0Z
#766444
0L
#766515
1N
#766574
1\
#766586
0P
#766599
1C
#766708
0K
#766729
0H
#766730
0F
#766757
1E
#766787
1V
#766801
1H
#766814
0U
#766825
1[
#766858
0X
#766984
0]
#766996
1Q
#767140
1G
#767268
1Y
#767516
0_
#767522
1^
#770186
00
#770218
13
#770548
1'
#770795
0*
#770913
1,
#770987
11
#771148
1(
#771216
0$
#771391
1&
#800000
b11100100010 #
b1101111111111101 "
b1101111110111101 "
b1101110110111101 "
b1101110100111101 "
b11000100010 #
b111000100010 #
b1101110100101101 "
b10111000100010 #
b10111000101010 #
b1100110100101101 "
b1110110100101101 "
16
#800830
1s
0|
#800840
0h
0y
0z
#800842
1x
#800850
1e
1f
1m
#800860
0w
#800870
0t
#800872
1c
#806120
1U
#806415
1Z
#806419
0Q
#806549
1S
#806572
0N
#806574
0\
#806596
1M
#806597
1K
#806643
1P
#806654
1L
#806714
0R
#806730
1F
#806757
0E
#806825
0[
#806929
1X
#806953
1W
#806982
1O
#806984
1]
#807053
1Q
#807064
0M
#807124
0S
#807339
0Y
#807516
1_
#807522
0^
#810101
1*
#810163
02
#810271
1/
#810438
1)
#810548
0'
#811117
1-
#811216
1$
#811219
0(
#811391
0&
#840000
b1110110100101100 "
b1110110100001100 "
b110110100001100 "
b10111000101011 #
b11111000101011 #
b1011111000101011 #
b10110100001100 "
b1011111001101011 #
b10110100000100 "
b10010100000100 "
b1011110001101011 #
b1011110001001011 #
b10010101000100 "
b10010111000100 "
b1011110101001011 #
b10010111010100 "
b1011110101000011 #
b10111010100 "
06
#840820
0r
0k
#840830
0s
1|
1d
#840840
1y
1z
0"!
1h
#840842
0q
1a
#840850
0}
0g
1j
0m
#840860
0u
#840880
0{
#840979
1p
#842875
0@
#842899
0?
#842946
1B
#843017
0D
#843285
0A
#843356
0C
#843427
1E
#846132
0K
#846135
0P
#846158
0O
#846165
0E
#846201
0L
#846272
1N
#846298
0X
0J
#846321
0W
#846322
1I
#846669
04
#846682
1O
#846729
0H
#846730
0F
#846741
0>
#846757
1E
#846801
1H
#846812
1@
#846814
0U
#846833
12
#846883
0B
#846954
1D
#846969
05
#846970
1[
#846975
03
#847039
1\
#847151
1?
#847211
0I
#847222
1A
#847293
1C
#847364
0E
#847449
0]
#847981
0_
#847987
1^
#849806
0)
0/
#850606
14
#850693
1'
#850770
02
#850795
0*
#850912
13
#851221
15
#851681
0$
#851856
1&
#880000
b1011110111000011 #
b10111010110 "
b1111110111000011 #
b1111110111010011 #
b1111100111010011 #
b10011010110 "
b1010011010110 "
b1010011010111 "
b1001010011010111 "
b1111100111010010 #
b111100111010010 #
b1001010011011111 "
b1001110011011111 "
b1001110010011111 "
b1001110010001111 "
b1011110010001111 "
16
#880820
1l
#880830
1b
1s
0|
#880840
0z
1"!
#880842
0a
1q
0x
#880850
0f
1}
#880860
1u
1!!
#880870
1i
1t
#880979
0p
#882899
0?
#886165
1E
#886289
0H
#886313
0G
#886411
0O
#886526
1T
#886549
1S
#886566
0[
#886597
1K
#886632
0\
#886654
1L
#886699
1I
#886729
1H
#886741
1>
#886752
1G
#886760
1Y
#886776
1B
#886803
0A
#886847
0D
#886918
1F
#886953
1W
#886969
05
#886989
0H
#887042
1]
#887151
1?
#887186
0C
#887257
0E
#887328
0G
#887574
1_
#887580
0^
#890187
04
#890271
1/
#890289
0'
#890417
1+
#890438
1)
#890546
0-
#890563
10
#890640
1(
#890805
03
#891175
01
#891221
15
#891274
1$
#891449
0&
#920000
b1011100010001111 "
b1011101010001111 "
b111000111010010 #
b1011101010101111 "
b1111101010101111 "
b111000110010010 #
b111001110010010 #
b1111101000101111 "
b111001110011010 #
b111001100011010 #
b1111101000101101 "
b11001100011010 #
b11001100001010 #
b1110101000101101 "
b11001100001011 #
b1110101000100101 "
b1110101001100101 "
b1110101001110101 "
06
#920820
1r
0v
0l
#920830
1|
0b
#920840
0y
1z
#920850
0}
0e
1g
0j
1m
#920860
1w
0!!
#920870
0t
0i
#920880
1{
#920979
1p
#922875
0@
#922899
0?
#923285
1A
#926096
0V
#926120
1U
#926132
0K
#926141
0F
#926165
1E
#926289
1H
#926395
1R
#926506
0W
#926572
0N
#926597
1K
#926643
1P
#926669
14
#926730
1F
#926757
0E
#926801
0H
#926803
0A
#926872
1J
#926929
1X
#926953
1W
#926969
05
#926982
1O
#927018
0L
#927053
0Q
#927211
0I
#927282
0K
#927339
0Y
#927428
1M
#930101
1*
#930187
04
#930956
0/
#930970
0,
#931075
00
#931106
1.
#931117
1-
#931219
0(
#960000
b11001100001111 #
b10001100001111 #
b10011100001111 #
b110101001110101 "
b1010011100001111 #
b110101001010101 "
b10101001010101 "
b1010011101001111 #
b10101011010101 "
b1010011111001111 #
b1010011111001110 #
b10101011011101 "
b10101010011101 "
16
#960810
1n
#960820
0r
#960830
0d
#960840
1y
0z
#960842
1a
0q
#960850
1f
1j
1}
#960870
1i
#960880
0{
#960979
0p
#962875
1@
#962899
1?
#962946
0B
#963017
1D
#963088
0F
#963159
1H
#963230
0J
#963285
1A
