Assignment 1/Basic gates/XOR3/simulation/qsim/XOR_3.msim.vcd
$comment
	File created using the following command:
		vcd file XOR_3.msim.vcd -direction
$end
$date
	Mon Apr 04 19:01:47 2022
$end
$version
	ModelSim Version 10.1d
$end
$timescale
	1ps
$end
$scope module XOR_3_vlg_vec_tst $end
$var reg 1 ! IN1 $end
$var reg 1 " IN2 $end
$var reg 1 # IN3 $end
$var wire 1 $ OUT1 $end
$var wire 1 % sampler $end
$scope module i1 $end
$var wire 1 & gnd $end
$var wire 1 ' vcc $end
$var wire 1 ( unknown $end
$var tri1 1 ) devclrn $end
$var tri1 1 * devpor $end
$var tri1 1 + devoe $end
$var wire 1 , IN3~combout $end
$var wire 1 - IN1~combout $end
$var wire 1 . IN2~combout $end
$var wire 1 / V1|V4|OUT1~0_combout $end
$upscope $end
$upscope $end
$enddefinitions $end
#0
$dumpvars
1!
0"
1#
x$
x%
0&
1'
x(
1)
1*
1+
1,
1-
0.
x/
$end
#5247
0/
#8614
0$
#10000
0!
0%
#10979
0-
#12036
1/
#15403
1$
#30000
0#
1%
#30840
0,
#36087
0/
#39454
0$
#40000
1"
1!
0%
#40979
1-
1.
#50000
0"
1%
#50979
0.
#51766
1/
#55133
1$
#60000
1#
1"
0%
#60840
1,
#60979
1.
#61766
0/
#65133
0$
#66087
1/
#69454
1$
#80000
0"
1%
#80979
0.
#81766
0/
#85133
0$
#90000
0#
1"
0%
#90840
0,
#90979
1.
#91766
1/
#95133
1$
#96087
0/
#99454
0$
#100000
0!
1#
1%
#100840
1,
#100979
0-
#102036
1/
#105403
1$
#106087
0/
#109454
0$
#110000
0#
0%
#110840
0,
#116087
1/
#119454
1$
#120000
1!
1#
1%
#120840
1,
#120979
1-
#122036
0/
#125403
0$
#126087
1/
#129454
1$
#130000
0"
0#
0%
#130840
0,
#130979
0.
#131766
0/
#135133
0$
#136087
1/
#139454
1$
#140000
1"
1%
#140979
1.
#141766
0/
#145133
0$
#150000
0"
0%
#150979
0.
#151766
1/
#155133
1$
#160000
0!
1"
1%
#160979
1.
0-
#170000
1!
0"
0%
#170979
0.
1-
#180000
1#
0!
1%
#180840
1,
#180979
0-
#182036
0/
#185403
0$
#186087
1/
#189454
1$
#190000
0#
1!
0%
#190840
0,
#190979
1-
#192036
0/
#195403
0$
#196087
1/
#199454
1$
#200000
1"
1#
0!
1%
#200840
1,
#200979
0-
1.
#206087
0/
#209454
0$
#210000
1!
0%
#210979
1-
#212036
1/
#215403
1$
#220000
0#
1%
#220840
0,
#226087
0/
#229454
0$
#230000
0"
0!
0%
#230979
0-
0.
#240000
1#
1"
1%
#240840
1,
#240979
1.
#241766
1/
#245133
1$
#246087
0/
#249454
0$
#250000
1!
0#
0%
#250840
0,
#250979
1-
#252036
1/
#255403
1$
#256087
0/
#259454
0$
#260000
1#
1%
#260840
1,
#266087
1/
#269454
1$
#270000
0!
0#
0%
#270840
0,
#270979
0-
#272036
0/
#275403
0$
#276087
1/
#279454
1$
#280000
1!
1#
1%
#280840
1,
#280979
1-
#282036
0/
#285403
0$
#286087
1/
#289454
1$
#290000
0!
0#
0%
#290840
0,
#290979
0-
#292036
0/
#295403
0$
#296087
1/
#299454
1$
#300000
1#
1%
#300840
1,
#306087
0/
#309454
0$
#310000
0"
0#
0%
#310840
0,
#310979
0.
#311766
1/
#315133
1$
#316087
0/
#319454
0$
#320000
1!
1#
1%
#320840
1,
#320979
1-
#322036
1/
#325403
1$
#326087
0/
#329454
0$
#330000
0!
0%
#330979
0-
#332036
1/
#335403
1$
#340000
1!
1%
#340979
1-
#342036
0/
#345403
0$
#360000
0#
0!
0%
#360840
0,
#360979
0-
#362036
1/
#365403
1$
#366087
0/
#369454
0$
#380000
1"
1!
1%
#380979
1-
1.
#390000
0!
0%
#390979
0-
#392036
1/
#395403
1$
#400000
0"
1!
1%
#400979
1-
0.
#410000
1#
1"
0!
0%
#410840
1,
#410979
0-
1.
#416087
0/
#419454
0$
#420000
1!
1%
#420979
1-
#422036
1/
#425403
1$
#430000
0#
0%
#430840
0,
#436087
0/
#439454
0$
#440000
0"
0!
1%
#440979
0-
0.
#450000
1"
1!
0%
#450979
1-
1.
#460000
0!
1%
#460979
0-
#462036
1/
#465403
1$
#470000
1!
0%
#470979
1-
#472036
0/
#475403
0$
#480000
1#
0"
0!
1%
#480840
1,
#480979
0-
0.
#486087
1/
#489454
1$
#490000
0#
1"
1!
0%
#490840
0,
#490979
1-
1.
#496087
0/
#499454
0$
#500000
0"
0!
1%
#500979
0-
0.
#510000
1!
0%
#510979
1-
#512036
1/
#515403
1$
#520000
1"
0!
1%
#520979
0-
1.
#530000
1#
0"
1!
0%
#530840
1,
#530979
1-
0.
#536087
0/
#539454
0$
#540000
1"
1%
#540979
1.
#541766
1/
#545133
1$
#550000
0"
0%
#550979
0.
#551766
0/
#555133
0$
#560000
0!
1%
#560979
0-
#562036
1/
#565403
1$
#570000
1!
0%
#570979
1-
#572036
0/
#575403
0$
#580000
0#
1"
1%
#580840
0,
#580979
1.
#581766
1/
#585133
1$
#586087
0/
#589454
0$
#590000
0!
0%
#590979
0-
#592036
1/
#595403
1$
#600000
1#
1%
#600840
1,
#606087
0/
#609454
0$
#620000
0"
1!
0#
0%
#620840
0,
#620979
1-
0.
#626087
1/
#629454
1$
#630000
1#
1%
#630840
1,
#636087
0/
#639454
0$
#640000
0#
0%
#640840
0,
#646087
1/
#649454
1$
#650000
1"
0!
1#
1%
#650840
1,
#650979
0-
1.
#656087
0/
#659454
0$
#660000
0"
0#
0%
#660840
0,
#660979
0.
#661766
1/
#665133
1$
#666087
0/
#669454
0$
#670000
1"
1%
#670979
1.
#671766
1/
#675133
1$
#680000
1!
0%
#680979
1-
#682036
0/
#685403
0$
#690000
0"
0!
1%
#690979
0-
0.
#700000
1"
1!
0%
#700979
1-
1.
#710000
1#
0"
1%
#710840
1,
#710979
0.
#711766
1/
#715133
1$
#716087
0/
#719454
0$
#720000
1"
0%
#720979
1.
#721766
1/
#725133
1$
#730000
0!
0"
1%
#730979
0.
0-
#740000
1!
0%
#740979
1-
#742036
0/
#745403
0$
#750000
0#
1"
0!
1%
#750840
0,
#750979
0-
1.
#756087
1/
#759454
1$
#770000
1#
1!
0%
#770840
1,
#770979
1-
#772036
0/
#775403
0$
#776087
1/
#779454
1$
#780000
0#
0!
1%
#780840
0,
#780979
0-
#782036
0/
#785403
0$
#786087
1/
#789454
1$
#790000
0"
0%
#790979
0.
#791766
0/
#795133
0$
#800000
1#
1!
1%
#800840
1,
#800979
1-
#802036
1/
#805403
1$
#806087
0/
#809454
0$
#810000
1"
0#
0!
0%
#810840
0,
#810979
0-
1.
#816087
1/
#819454
1$
#820000
0"
1#
1%
#820840
1,
#820979
0.
#821766
0/
#825133
0$
#826087
1/
#829454
1$
#830000
1!
0#
0%
#830840
0,
#830979
1-
#832036
0/
#835403
0$
#836087
1/
#839454
1$
#840000
0!
1%
#840979
0-
#842036
0/
#845403
0$
#850000
1"
1#
0%
#850840
1,
#850979
1.
#851766
1/
#855133
1$
#856087
0/
#859454
0$
#880000
1!
1%
#880979
1-
#882036
1/
#885403
1$
#890000
0!
0%
#890979
0-
#892036
0/
#895403
0$
#900000
1!
1%
#900979
1-
#902036
1/
#905403
1$
#910000
0"
0%
#910979
0.
#911766
0/
#915133
0$
#920000
0!
1"
1%
#920979
1.
0-
#930000
0#
0%
#930840
0,
#936087
1/
#939454
1$
#940000
1!
0"
1%
#940979
0.
1-
#950000
0!
0%
#950979
0-
#952036
0/
#955403
0$
#960000
1"
1!
1%
#960979
1-
1.
#970000
0!
0%
#970979
0-
#972036
1/
#975403
1$
#990000
1#
1!
1%
#990840
1,
#990979
1-
#992036
0/
#995403
0$
#996087
1/
#999454
1$
